{
  "token": "NDU0OTA2NDkyNDEyMjMxNjgx.Df0QUA.OduVLO-7fhntlOjSWyzGkPxzT_8",
  "owners": [ "304347556400463873", "212825259697635328"],
  "allowed_servers": ["439668987421261824","415909893233442826"],
  "prefix": ["!tc", "!tc "]
}
